{
  "extends": "../../tslint.json",
  "rules": {
    "directive-selector": [true, "attribute", "dkm", "camelCase"],
    "component-selector": [true, "element", "dkm", "kebab-case"]
  },
  "linterOptions": {
    "exclude": ["!**/*"]
  }
}
